simres.vcd
$date
	Mon Jun 19 14:12:55 2023
$end
$version
	Icarus Verilog
$end
$timescale
	1s
$end
$scope module ProcessorTestbench $end
$var reg 1 ! clk $end
$var reg 1 " reset $end
$var integer 32 # i [31:0] $end
$scope module proc $end
$var wire 1 ! clk $end
$var wire 1 " reset $end
$var wire 32 $ writedata [31:0] $end
$var wire 32 % readdata [31:0] $end
$var wire 32 & pc [31:0] $end
$var wire 32 ' instr [31:0] $end
$var wire 1 ( datawrite $end
$var wire 32 ) dataaddr [31:0] $end
$scope module dmem $end
$var wire 6 * addr [5:0] $end
$var wire 1 ! clk $end
$var wire 32 + rd [31:0] $end
$var wire 1 ( we $end
$var wire 32 , wd [31:0] $end
$upscope $end
$scope module imem $end
$var wire 6 - addr [5:0] $end
$var wire 32 . rd [31:0] $end
$upscope $end
$scope module mips $end
$var wire 1 ! clk $end
$var wire 32 / instr [31:0] $end
$var wire 32 0 readdata [31:0] $end
$var wire 1 " reset $end
$var wire 1 1 zero $end
$var wire 32 2 writedata [31:0] $end
$var wire 1 3 shift16left $end
$var wire 1 4 regwrite $end
$var wire 32 5 pc [31:0] $end
$var wire 1 ( memwrite $end
$var wire 1 6 memtoreg $end
$var wire 1 7 dojump $end
$var wire 1 8 dojr $end
$var wire 1 9 dojal $end
$var wire 1 : dobranch $end
$var wire 5 ; destreg [4:0] $end
$var wire 1 < alusrcbimm $end
$var wire 32 = aluout [31:0] $end
$var wire 3 > alucontrol [2:0] $end
$scope module decoder $end
$var wire 32 ? instr [31:0] $end
$var wire 1 1 zero $end
$var wire 6 @ op [5:0] $end
$var wire 6 A funct [5:0] $end
$var reg 3 B alucontrol [2:0] $end
$var reg 1 < alusrcbimm $end
$var reg 5 C destreg [4:0] $end
$var reg 1 : dobranch $end
$var reg 1 9 dojal $end
$var reg 1 8 dojr $end
$var reg 1 7 dojump $end
$var reg 1 6 memtoreg $end
$var reg 1 ( memwrite $end
$var reg 1 4 regwrite $end
$var reg 1 3 shift16left $end
$upscope $end
$scope module dp $end
$var wire 3 D alucontrol [2:0] $end
$var wire 1 < alusrcbimm $end
$var wire 1 ! clk $end
$var wire 5 E destreg [4:0] $end
$var wire 1 : dobranch $end
$var wire 1 9 dojal $end
$var wire 1 8 dojr $end
$var wire 32 F instr [31:0] $end
$var wire 1 7 jump $end
$var wire 1 6 memtoreg $end
$var wire 32 G pcjal [31:0] $end
$var wire 32 H readdata [31:0] $end
$var wire 1 4 regwrite $end
$var wire 1 " reset $end
$var wire 1 3 shift16left $end
$var wire 32 I writedata [31:0] $end
$var wire 1 1 zero $end
$var wire 32 J srcbimm [31:0] $end
$var wire 32 K srcb [31:0] $end
$var wire 32 L srca [31:0] $end
$var wire 32 M signimm [31:0] $end
$var wire 32 N result [31:0] $end
$var wire 32 O pc [31:0] $end
$var wire 64 P hiloinp [63:0] $end
$var wire 64 Q hilo [63:0] $end
$var wire 32 R aluout [31:0] $end
$scope module alu $end
$var wire 3 S alucontrol [2:0] $end
$var wire 32 T b [31:0] $end
$var wire 32 U result [31:0] $end
$var wire 1 1 zero $end
$var wire 64 V hilo [63:0] $end
$var wire 32 W a [31:0] $end
$var reg 32 X RES [31:0] $end
$var reg 64 Y hiloout [63:0] $end
$upscope $end
$scope module gpr $end
$var wire 1 ! clk $end
$var wire 1 9 dojal $end
$var wire 64 Z hilo [63:0] $end
$var wire 64 [ hiloinp [63:0] $end
$var wire 32 \ pcjal [31:0] $end
$var wire 5 ] ra1 [4:0] $end
$var wire 5 ^ ra2 [4:0] $end
$var wire 5 _ wa3 [4:0] $end
$var wire 32 ` wd3 [31:0] $end
$var wire 1 4 we3 $end
$var wire 32 a rd2 [31:0] $end
$var wire 32 b rd1 [31:0] $end
$var wire 32 c pc [31:0] $end
$var reg 64 d hiloreg [63:0] $end
$upscope $end
$scope module pcenv $end
$var wire 1 ! clk $end
$var wire 1 : dobranch $end
$var wire 1 8 dojr $end
$var wire 1 7 dojump $end
$var wire 26 e jumptarget [25:0] $end
$var wire 32 f pcjr [31:0] $end
$var wire 32 g progcounter [31:0] $end
$var wire 1 " reset $end
$var wire 32 h nextpc [31:0] $end
$var wire 32 i incpc [31:0] $end
$var wire 32 j branchpc [31:0] $end
$var wire 32 k branchoffset [31:0] $end
$var reg 32 l pc [31:0] $end
$scope module pcbranch $end
$var wire 32 m b [31:0] $end
$var wire 1 n cin $end
$var wire 32 o y [31:0] $end
$var wire 1 p cout $end
$var wire 32 q a [31:0] $end
$upscope $end
$scope module pcinc $end
$var wire 32 r a [31:0] $end
$var wire 32 s b [31:0] $end
$var wire 1 t cin $end
$var wire 32 u y [31:0] $end
$var wire 1 v cout $end
$upscope $end
$upscope $end
$scope module se $end
$var wire 16 w a [15:0] $end
$var wire 32 x y [31:0] $end
$upscope $end
$upscope $end
$upscope $end
$upscope $end
$upscope $end
$enddefinitions $end
#0
$dumpvars
b1001 x
b1001 w
0v
b10000000000000000000100 u
0t
b100 s
b10000000000000000000000 r
b10000000000000000000100 q
0p
b10000000000000000101000 o
0n
b100100 m
b10000000000000000000000 l
b1001 k
b10000000000000000101000 j
b10000000000000000000100 i
b10000000000000000100100 h
b10000000000000000000000 g
b0 f
b100000000000000001001 e
bx d
b10000000000000000000000 c
b0 b
b0 a
b0 `
bx _
b10000 ^
b0 ]
b0 \
bx [
bx Z
bx Y
b0 X
b0 W
bx V
b0 U
b1001 T
bx S
b0 R
bx Q
bx P
b10000000000000000000000 O
b0 N
b1001 M
b0 L
b0 K
b1001 J
b0 I
bx H
b0 G
b1100000100000000000000001001 F
bx E
bx D
bx C
bx B
b1001 A
b11 @
b1100000100000000000000001001 ?
bx >
b0 =
1<
bx ;
0:
19
08
17
06
b10000000000000000000000 5
04
03
b0 2
11
bx 0
b1100000100000000000000001001 /
b1100000100000000000000001001 .
b0 -
b0 ,
bx +
b0 *
b0 )
0(
b1100000100000000000000001001 '
b10000000000000000000000 &
bx %
b0 $
b100000 #
1"
1!
$end
#2
0!
#4
b10000000000000000000100 G
b10000000000000000000100 \
b10000000000000000000100 f
1!
#5
0"
#6
0!
#8
b111 N
b111 `
b1 *
b10000000000000000101000 h
01
b111 )
b111 =
b111 R
b111 U
b111 X
b11100 m
b111 J
b111 T
b10000000000000001000100 j
b10000000000000001000100 o
b10 >
b10 B
b10 D
b10 S
07
b101 ;
b101 C
b101 E
b101 _
09
14
b1001 @
b111 A
b1010000000000000111 e
b111 M
b111 k
b111 x
b111 w
b101 ^
b10000000000000000101000 i
b10000000000000000101000 q
b10000000000000000101000 u
b100100000001010000000000000111 '
b100100000001010000000000000111 .
b100100000001010000000000000111 /
b100100000001010000000000000111 ?
b100100000001010000000000000111 F
b1001 -
b10000000000000000100100 &
b10000000000000000100100 5
b10000000000000000100100 O
b10000000000000000100100 c
b10000000000000000100100 g
b10000000000000000100100 l
b10000000000000000100100 r
1!
#10
0!
#12
b0 N
b0 `
b0 *
b10000000000000000101100 h
11
b0 )
b0 =
b0 R
b0 U
b0 X
b0 m
b0 J
b0 T
b10000000000000000101100 j
b10000000000000000101100 o
13
0<
b110 ;
b110 C
b110 E
b110 _
b1111 @
b0 A
b1100000000000000000 e
b0 M
b0 k
b0 x
b0 w
b110 ^
b0 $
b0 ,
b0 2
b0 I
b0 K
b0 a
b10000000000000000101100 i
b10000000000000000101100 q
b10000000000000000101100 u
b111100000001100000000000000000 '
b111100000001100000000000000000 .
b111100000001100000000000000000 /
b111100000001100000000000000000 ?
b111100000001100000000000000000 F
b1010 -
b10000000000000000101000 &
b10000000000000000101000 5
b10000000000000000101000 O
b10000000000000000101000 c
b10000000000000000101000 g
b10000000000000000101000 l
b10000000000000000101000 r
1!
#14
0!
#16
b10000000000000000110000 h
b101 N
b101 `
b1 *
01
b101 )
b101 =
b101 R
b101 U
b101 X
b101 J
b101 T
b10100 m
b10000000000000001000100 j
b10000000000000001000100 o
b1 >
b1 B
b1 D
b1 S
03
1<
b1101 @
b101 A
b110001100000000000000101 e
b101 M
b101 k
b101 x
b101 w
b110 ]
b10000000000000000110000 i
b10000000000000000110000 q
b10000000000000000110000 u
b110100110001100000000000000101 '
b110100110001100000000000000101 .
b110100110001100000000000000101 /
b110100110001100000000000000101 ?
b110100110001100000000000000101 F
b1011 -
b10000000000000000101100 &
b10000000000000000101100 5
b10000000000000000101100 O
b10000000000000000101100 c
b10000000000000000101100 g
b10000000000000000101100 l
b10000000000000000101100 r
1!
#18
0!
#20
b0 J
b0 T
b0 N
b0 `
b0 *
b10000000000000000000100 h
b100000 m
11
b0 )
b0 =
b0 R
b0 U
b0 X
b10000000000000001010100 j
b10000000000000001010100 o
bx >
bx B
bx D
bx S
0<
bx ;
bx C
bx E
bx _
18
04
b0 @
b1000 A
b11111000000000000000001000 e
b1000 M
b1000 k
b1000 x
b1000 w
b11111 ]
b0 ^
b10000000000000000000100 L
b10000000000000000000100 W
b10000000000000000000100 b
b0 $
b0 ,
b0 2
b0 I
b0 K
b0 a
b10000000000000000110100 i
b10000000000000000110100 q
b10000000000000000110100 u
b11111000000000000000001000 '
b11111000000000000000001000 .
b11111000000000000000001000 /
b11111000000000000000001000 ?
b11111000000000000000001000 F
b1100 -
b10000000000000000110000 &
b10000000000000000110000 5
b10000000000000000110000 O
b10000000000000000110000 c
b10000000000000000110000 g
b10000000000000000110000 l
b10000000000000000110000 r
1!
#22
0!
#24
b10010001101000000000000000000 N
b10010001101000000000000000000 `
01
b10010001101000000000000000000 )
b10010001101000000000000000000 =
b10010001101000000000000000000 R
b10010001101000000000000000000 U
b10010001101000000000000000000 X
b10010001101000000000000000000 J
b10010001101000000000000000000 T
b10000000000000000001000 h
b100100011010000 m
b0 L
b0 W
b0 b
b10000000100100011011000 j
b10000000100100011011000 o
b10 >
b10 B
b10 D
b10 S
13
b10 ;
b10 C
b10 E
b10 _
08
14
b1111 @
b110100 A
b100001001000110100 e
b1001000110100 M
b1001000110100 k
b1001000110100 x
b1001000110100 w
b0 ]
b10 ^
b10000000000000000001000 i
b10000000000000000001000 q
b10000000000000000001000 u
b111100000000100001001000110100 '
b111100000000100001001000110100 .
b111100000000100001001000110100 /
b111100000000100001001000110100 ?
b111100000000100001001000110100 F
b1 -
b10000000000000000000100 &
b10000000000000000000100 5
b10000000000000000000100 O
b10000000000000000000100 c
b10000000000000000000100 g
b10000000000000000000100 l
b10000000000000000000100 r
1!
#26
0!
#28
b10000000000000000001100 h
b10010001101000000000001100100 N
b10010001101000000000001100100 `
b11001 *
b10010001101000000000001100100 )
b10010001101000000000001100100 =
b10010001101000000000001100100 R
b10010001101000000000001100100 U
b10010001101000000000001100100 X
b1100100 J
b1100100 T
b110010000 m
b10010001101000000000000000000 L
b10010001101000000000000000000 W
b10010001101000000000000000000 b
b10000000000000110011100 j
b10000000000000110011100 o
b1 >
b1 B
b1 D
b1 S
03
1<
b1101 @
b100100 A
b10000100000000001100100 e
b1100100 M
b1100100 k
b1100100 x
b1100100 w
b10 ]
b10010001101000000000000000000 $
b10010001101000000000000000000 ,
b10010001101000000000000000000 2
b10010001101000000000000000000 I
b10010001101000000000000000000 K
b10010001101000000000000000000 a
b10000000000000000001100 i
b10000000000000000001100 q
b10000000000000000001100 u
b110100010000100000000001100100 '
b110100010000100000000001100100 .
b110100010000100000000001100100 /
b110100010000100000000001100100 ?
b110100010000100000000001100100 F
b10 -
b10000000000000000001000 &
b10000000000000000001000 5
b10000000000000000001000 O
b10000000000000000001000 c
b10000000000000000001000 g
b10000000000000000001000 l
b10000000000000000001000 r
1!
#30
0!
#32
b0 N
b0 `
b0 *
11
b0 )
b0 =
b0 R
b0 U
b0 X
b10000000000000000010000 h
b0 m
b0 J
b0 T
b10000000000000000010000 j
b10000000000000000010000 o
b10 >
b10 B
b10 D
b10 S
13
0<
b11 ;
b11 C
b11 E
b11 _
b1111 @
b0 A
b110000000000000000 e
b0 M
b0 k
b0 x
b0 w
b0 ]
b11 ^
b10000000000000000010000 i
b10000000000000000010000 q
b10000000000000000010000 u
b111100000000110000000000000000 '
b111100000000110000000000000000 .
b111100000000110000000000000000 /
b111100000000110000000000000000 ?
b111100000000110000000000000000 F
b11 -
b0 L
b0 W
b0 b
b0 $
b0 ,
b0 2
b0 I
b0 K
b0 a
b10000000000000000001100 &
b10000000000000000001100 5
b10000000000000000001100 O
b10000000000000000001100 c
b10000000000000000001100 g
b10000000000000000001100 l
b10000000000000000001100 r
1!
#34
0!
#36
b10000000000000000010100 h
b11101110 N
b11101110 `
b111011 *
01
b11101110 )
b11101110 =
b11101110 R
b11101110 U
b11101110 X
b11101110 J
b11101110 T
b1110111000 m
b10000000000001111001100 j
b10000000000001111001100 o
b1 >
b1 B
b1 D
b1 S
03
1<
b1101 @
b101110 A
b11000110000000011101110 e
b11101110 M
b11101110 k
b11101110 x
b11101110 w
b11 ]
b10000000000000000010100 i
b10000000000000000010100 q
b10000000000000000010100 u
b110100011000110000000011101110 '
b110100011000110000000011101110 .
b110100011000110000000011101110 /
b110100011000110000000011101110 ?
b110100011000110000000011101110 F
b100 -
b10000000000000000010000 &
b10000000000000000010000 5
b10000000000000000010000 O
b10000000000000000010000 c
b10000000000000000010000 g
b10000000000000000010000 l
b10000000000000000010000 r
1!
#38
0!
#40
b1000011101100010110000101110011111000 Q
b1000011101100010110000101110011111000 V
b1000011101100010110000101110011111000 Z
b1000011101100010110000101110011111000 d
b10000000000000000011000 h
b1000011101100010110000101110011111000 P
b1000011101100010110000101110011111000 Y
b1000011101100010110000101110011111000 [
b1100100 m
b10000000000000001111100 j
b10000000000000001111100 o
b11 >
b11 B
b11 D
b11 S
0<
b0 ;
b0 C
b0 E
b0 _
b0 @
b11001 A
b10000110000000000011001 e
b11001 M
b11001 k
b11001 x
b11001 w
b10 ]
b10000000000000000011000 i
b10000000000000000011000 q
b10000000000000000011000 u
b10000110000000000011001 '
b10000110000000000011001 .
b10000110000000000011001 /
b10000110000000000011001 ?
b10000110000000000011001 F
b101 -
b10010001101000000000001100100 L
b10010001101000000000001100100 W
b10010001101000000000001100100 b
b11101110 $
b11101110 ,
b11101110 2
b11101110 I
b11101110 K
b11101110 a
b10000000000000000010100 &
b10000000000000000010100 5
b10000000000000000010100 O
b10000000000000000010100 c
b10000000000000000010100 g
b10000000000000000010100 l
b10000000000000000010100 r
1!
#42
0!
#44
b0 J
b0 T
b10000000000000000011100 h
b10000 N
b10000 `
b100 *
b10000 )
b10000 =
b10000 R
b10000 U
b10000 X
b100000001000000 m
b0 L
b0 W
b0 b
b0 $
b0 ,
b0 2
b0 I
b0 K
b0 a
b10000000100000001011100 j
b10000000100000001011100 o
b100 >
b100 B
b100 D
b100 S
b10 ;
b10 C
b10 E
b10 _
b10000 A
b1000000010000 e
b1000000010000 M
b1000000010000 k
b1000000010000 x
b1000000010000 w
b0 ]
b0 ^
b10000000000000000011100 i
b10000000000000000011100 q
b10000000000000000011100 u
b1000000010000 '
b1000000010000 .
b1000000010000 /
b1000000010000 ?
b1000000010000 F
b110 -
b10000000000000000011000 &
b10000000000000000011000 5
b10000000000000000011000 O
b10000000000000000011000 c
b10000000000000000011000 g
b10000000000000000011000 l
b10000000000000000011000 r
1!
#46
0!
#48
b10000000000000000100000 h
b11101100010110000101110011111000 N
b11101100010110000101110011111000 `
b111110 *
b11101100010110000101110011111000 )
b11101100010110000101110011111000 =
b11101100010110000101110011111000 R
b11101100010110000101110011111000 U
b11101100010110000101110011111000 X
b1000000001001000 m
b10000001000000001101000 j
b10000001000000001101000 o
b101 >
b101 B
b101 D
b101 S
b100 ;
b100 C
b100 E
b100 _
b10010 A
b10000000010010 e
b10000000010010 M
b10000000010010 k
b10000000010010 x
b10000000010010 w
b10000000000000000100000 i
b10000000000000000100000 q
b10000000000000000100000 u
b10000000010010 '
b10000000010010 .
b10000000010010 /
b10000000010010 ?
b10000000010010 F
b111 -
b10000000000000000011100 &
b10000000000000000011100 5
b10000000000000000011100 O
b10000000000000000011100 c
b10000000000000000011100 g
b10000000000000000011100 l
b10000000000000000011100 r
1!
#50
0!
#52
b0 N
b0 `
b0 *
b10000000000000000110100 h
11
b0 )
b0 =
b0 R
b0 U
b0 X
b1101 J
b1101 T
b110100 m
b10000000000000001011000 j
b10000000000000001011000 o
bx >
bx B
bx D
bx S
17
1<
bx ;
bx C
bx E
bx _
04
b10 @
b1101 A
b100000000000000001101 e
b1101 M
b1101 k
b1101 x
b1101 w
b10000 ^
b10000000000000000100100 i
b10000000000000000100100 q
b10000000000000000100100 u
b1000000100000000000000001101 '
b1000000100000000000000001101 .
b1000000100000000000000001101 /
b1000000100000000000000001101 ?
b1000000100000000000000001101 F
b1000 -
b10000000000000000100000 &
b10000000000000000100000 5
b10000000000000000100000 O
b10000000000000000100000 c
b10000000000000000100000 g
b10000000000000000100000 l
b10000000000000000100000 r
1!
#54
0!
#56
xp
bx N
bx `
bx h
bx00 m
bx J
bx T
bx L
bx W
bx b
bx $
bx ,
bx 2
bx I
bx K
bx a
bx j
bx o
x7
x6
x(
x:
x3
x<
x8
x9
x4
bx @
bx A
bx e
bx M
bx k
bx x
bx w
bx ]
bx ^
b10000000000000000111000 i
b10000000000000000111000 q
b10000000000000000111000 u
bx '
bx .
bx /
bx ?
bx F
b1101 -
b10000000000000000110100 &
b10000000000000000110100 5
b10000000000000000110100 O
b10000000000000000110100 c
b10000000000000000110100 g
b10000000000000000110100 l
b10000000000000000110100 r
1!
#58
0!
#60
bx i
bx q
bx u
xv
bx -
bx &
bx 5
bx O
bx c
bx g
bx l
bx r
1!
