simres.vcd
$date
	Mon Jun 19 18:05:30 2023
$end
$version
	Icarus Verilog
$end
$timescale
	1s
$end
$scope module ProcessorTestbench $end
$var reg 1 ! clk $end
$var reg 1 " reset $end
$var integer 32 # i [31:0] $end
$scope module proc $end
$var wire 1 ! clk $end
$var wire 1 " reset $end
$var wire 32 $ writedata [31:0] $end
$var wire 32 % readdata [31:0] $end
$var wire 32 & pc [31:0] $end
$var wire 32 ' instr [31:0] $end
$var wire 1 ( datawrite $end
$var wire 32 ) dataaddr [31:0] $end
$scope module dmem $end
$var wire 6 * addr [5:0] $end
$var wire 1 ! clk $end
$var wire 32 + rd [31:0] $end
$var wire 1 ( we $end
$var wire 32 , wd [31:0] $end
$upscope $end
$scope module imem $end
$var wire 6 - addr [5:0] $end
$var wire 32 . rd [31:0] $end
$upscope $end
$scope module mips $end
$var wire 1 ! clk $end
$var wire 32 / instr [31:0] $end
$var wire 32 0 readdata [31:0] $end
$var wire 1 " reset $end
$var wire 1 1 zero $end
$var wire 32 2 writedata [31:0] $end
$var wire 1 3 slt $end
$var wire 1 4 shift16left $end
$var wire 1 5 regwrite $end
$var wire 32 6 pc [31:0] $end
$var wire 1 ( memwrite $end
$var wire 1 7 memtoreg $end
$var wire 1 8 dojump $end
$var wire 1 9 dojr $end
$var wire 1 : dojal $end
$var wire 1 ; dobranch $end
$var wire 5 < destreg [4:0] $end
$var wire 1 = alusrcbimm $end
$var wire 32 > aluout [31:0] $end
$var wire 3 ? alucontrol [2:0] $end
$scope module decoder $end
$var wire 32 @ instr [31:0] $end
$var wire 1 1 zero $end
$var wire 6 A op [5:0] $end
$var wire 6 B funct [5:0] $end
$var reg 3 C alucontrol [2:0] $end
$var reg 1 = alusrcbimm $end
$var reg 5 D destreg [4:0] $end
$var reg 1 ; dobranch $end
$var reg 1 : dojal $end
$var reg 1 9 dojr $end
$var reg 1 8 dojump $end
$var reg 1 7 memtoreg $end
$var reg 1 ( memwrite $end
$var reg 1 5 regwrite $end
$var reg 1 4 shift16left $end
$var reg 1 3 slt $end
$upscope $end
$scope module dp $end
$var wire 3 E alucontrol [2:0] $end
$var wire 1 = alusrcbimm $end
$var wire 1 ! clk $end
$var wire 5 F destreg [4:0] $end
$var wire 1 ; dobranch $end
$var wire 1 : dojal $end
$var wire 1 9 dojr $end
$var wire 32 G instr [31:0] $end
$var wire 1 8 jump $end
$var wire 1 7 memtoreg $end
$var wire 32 H pcjal [31:0] $end
$var wire 32 I readdata [31:0] $end
$var wire 1 5 regwrite $end
$var wire 1 " reset $end
$var wire 1 4 shift16left $end
$var wire 1 3 slt $end
$var wire 32 J writedata [31:0] $end
$var wire 1 1 zero $end
$var wire 32 K srcbimm [31:0] $end
$var wire 32 L srcb [31:0] $end
$var wire 32 M srca [31:0] $end
$var wire 32 N signimm [31:0] $end
$var wire 32 O result [31:0] $end
$var wire 32 P pc [31:0] $end
$var wire 64 Q hiloinp [63:0] $end
$var wire 64 R hilo [63:0] $end
$var wire 32 S aluout [31:0] $end
$scope module alu $end
$var wire 3 T alucontrol [2:0] $end
$var wire 32 U b [31:0] $end
$var wire 32 V result [31:0] $end
$var wire 1 1 zero $end
$var wire 64 W hilo [63:0] $end
$var wire 32 X a [31:0] $end
$var reg 32 Y RES [31:0] $end
$var reg 64 Z hiloout [63:0] $end
$upscope $end
$scope module gpr $end
$var wire 1 ! clk $end
$var wire 1 : dojal $end
$var wire 64 [ hilo [63:0] $end
$var wire 64 \ hiloinp [63:0] $end
$var wire 32 ] pcjal [31:0] $end
$var wire 5 ^ ra1 [4:0] $end
$var wire 5 _ ra2 [4:0] $end
$var wire 5 ` wa3 [4:0] $end
$var wire 32 a wd3 [31:0] $end
$var wire 1 5 we3 $end
$var wire 32 b rd2 [31:0] $end
$var wire 32 c rd1 [31:0] $end
$var wire 32 d pc [31:0] $end
$var reg 64 e hiloreg [63:0] $end
$upscope $end
$scope module pcenv $end
$var wire 1 ! clk $end
$var wire 1 ; dobranch $end
$var wire 1 9 dojr $end
$var wire 1 8 dojump $end
$var wire 26 f jumptarget [25:0] $end
$var wire 32 g pcjr [31:0] $end
$var wire 32 h progcounter [31:0] $end
$var wire 1 " reset $end
$var wire 32 i nextpc [31:0] $end
$var wire 32 j incpc [31:0] $end
$var wire 32 k branchpc [31:0] $end
$var wire 32 l branchoffset [31:0] $end
$var reg 32 m pc [31:0] $end
$scope module pcbranch $end
$var wire 32 n b [31:0] $end
$var wire 1 o cin $end
$var wire 32 p y [31:0] $end
$var wire 1 q cout $end
$var wire 32 r a [31:0] $end
$upscope $end
$scope module pcinc $end
$var wire 32 s a [31:0] $end
$var wire 32 t b [31:0] $end
$var wire 1 u cin $end
$var wire 32 v y [31:0] $end
$var wire 1 w cout $end
$upscope $end
$upscope $end
$scope module se $end
$var wire 16 x a [15:0] $end
$var wire 32 y y [31:0] $end
$upscope $end
$scope module sltt $end
$var wire 32 z a [31:0] $end
$var wire 32 { b [31:0] $end
$var wire 1 1 zero $end
$upscope $end
$upscope $end
$upscope $end
$upscope $end
$upscope $end
$enddefinitions $end
#0
$dumpvars
b1001 {
b0 z
b1001 y
b1001 x
0w
b10000000000000000000100 v
0u
b100 t
b10000000000000000000000 s
b10000000000000000000100 r
0q
b10000000000000000101000 p
0o
b100100 n
b10000000000000000000000 m
b1001 l
b10000000000000000101000 k
b10000000000000000000100 j
b10000000000000000100100 i
b10000000000000000000000 h
b0 g
b100000000000000001001 f
bx e
b10000000000000000000000 d
b0 c
b0 b
b0 a
bx `
b10000 _
b0 ^
b0 ]
bx \
bx [
bx Z
b0 Y
b0 X
bx W
b0 V
b1001 U
bx T
b0 S
bx R
bx Q
b10000000000000000000000 P
b0 O
b1001 N
b0 M
b0 L
b1001 K
b0 J
bx I
b0 H
b1100000100000000000000001001 G
bx F
bx E
bx D
bx C
b1001 B
b11 A
b1100000100000000000000001001 @
bx ?
b0 >
1=
bx <
0;
1:
09
18
07
b10000000000000000000000 6
05
04
03
b0 2
x1
bx 0
b1100000100000000000000001001 /
b1100000100000000000000001001 .
b0 -
b0 ,
bx +
b0 *
b0 )
0(
b1100000100000000000000001001 '
b10000000000000000000000 &
bx %
b0 $
b100000 #
1"
1!
$end
#2
0!
#4
b10000000000000000000100 H
b10000000000000000000100 ]
b10000000000000000000100 g
1!
#5
0"
#6
0!
#8
b111 O
b111 a
b1 *
b10000000000000000101000 i
01
b111 )
b111 >
b111 S
b111 V
b111 Y
b11100 n
b111 K
b111 U
b111 {
b10000000000000001000100 k
b10000000000000001000100 p
b10 ?
b10 C
b10 E
b10 T
08
b101 <
b101 D
b101 F
b101 `
0:
15
b1001 A
b111 B
b1010000000000000111 f
b111 N
b111 l
b111 y
b111 x
b101 _
b10000000000000000101000 j
b10000000000000000101000 r
b10000000000000000101000 v
b100100000001010000000000000111 '
b100100000001010000000000000111 .
b100100000001010000000000000111 /
b100100000001010000000000000111 @
b100100000001010000000000000111 G
b1001 -
b10000000000000000100100 &
b10000000000000000100100 6
b10000000000000000100100 P
b10000000000000000100100 d
b10000000000000000100100 h
b10000000000000000100100 m
b10000000000000000100100 s
1!
#10
0!
#12
b0 O
b0 a
b0 *
b10000000000000000101100 i
11
b0 )
b0 >
b0 S
b0 V
b0 Y
b0 n
b0 K
b0 U
b0 {
b10000000000000000101100 k
b10000000000000000101100 p
14
0=
b110 <
b110 D
b110 F
b110 `
b1111 A
b0 B
b1100000000000000000 f
b0 N
b0 l
b0 y
b0 x
b110 _
b0 $
b0 ,
b0 2
b0 J
b0 L
b0 b
b10000000000000000101100 j
b10000000000000000101100 r
b10000000000000000101100 v
b111100000001100000000000000000 '
b111100000001100000000000000000 .
b111100000001100000000000000000 /
b111100000001100000000000000000 @
b111100000001100000000000000000 G
b1010 -
b10000000000000000101000 &
b10000000000000000101000 6
b10000000000000000101000 P
b10000000000000000101000 d
b10000000000000000101000 h
b10000000000000000101000 m
b10000000000000000101000 s
1!
#14
0!
#16
b101 O
b101 a
b10000000000000000110000 i
b1 *
01
b101 )
b101 >
b101 S
b101 V
b101 Y
b101 K
b101 U
b101 {
b10100 n
b10000000000000001000100 k
b10000000000000001000100 p
b1 ?
b1 C
b1 E
b1 T
04
1=
b1101 A
b101 B
b110001100000000000000101 f
b101 N
b101 l
b101 y
b101 x
b110 ^
b10000000000000000110000 j
b10000000000000000110000 r
b10000000000000000110000 v
b110100110001100000000000000101 '
b110100110001100000000000000101 .
b110100110001100000000000000101 /
b110100110001100000000000000101 @
b110100110001100000000000000101 G
b1011 -
b10000000000000000101100 &
b10000000000000000101100 6
b10000000000000000101100 P
b10000000000000000101100 d
b10000000000000000101100 h
b10000000000000000101100 m
b10000000000000000101100 s
1!
#18
0!
#20
b0 K
b0 U
b0 {
b0 O
b0 a
b0 *
b10000000000000000000100 i
b100000 n
11
b0 )
b0 >
b0 S
b0 V
b0 Y
b10000000000000001010100 k
b10000000000000001010100 p
bx ?
bx C
bx E
bx T
0=
bx <
bx D
bx F
bx `
19
05
b0 A
b1000 B
b11111000000000000000001000 f
b1000 N
b1000 l
b1000 y
b1000 x
b11111 ^
b0 _
b10000000000000000000100 M
b10000000000000000000100 X
b10000000000000000000100 c
b10000000000000000000100 z
b0 $
b0 ,
b0 2
b0 J
b0 L
b0 b
b10000000000000000110100 j
b10000000000000000110100 r
b10000000000000000110100 v
b11111000000000000000001000 '
b11111000000000000000001000 .
b11111000000000000000001000 /
b11111000000000000000001000 @
b11111000000000000000001000 G
b1100 -
b10000000000000000110000 &
b10000000000000000110000 6
b10000000000000000110000 P
b10000000000000000110000 d
b10000000000000000110000 h
b10000000000000000110000 m
b10000000000000000110000 s
1!
#22
0!
#24
b10010001101000000000000000000 O
b10010001101000000000000000000 a
01
b10010001101000000000000000000 )
b10010001101000000000000000000 >
b10010001101000000000000000000 S
b10010001101000000000000000000 V
b10010001101000000000000000000 Y
b10010001101000000000000000000 K
b10010001101000000000000000000 U
b10010001101000000000000000000 {
b10000000000000000001000 i
b100100011010000 n
b0 M
b0 X
b0 c
b0 z
b10000000100100011011000 k
b10000000100100011011000 p
b10 ?
b10 C
b10 E
b10 T
14
b10 <
b10 D
b10 F
b10 `
09
15
b1111 A
b110100 B
b100001001000110100 f
b1001000110100 N
b1001000110100 l
b1001000110100 y
b1001000110100 x
b0 ^
b10 _
b10000000000000000001000 j
b10000000000000000001000 r
b10000000000000000001000 v
b111100000000100001001000110100 '
b111100000000100001001000110100 .
b111100000000100001001000110100 /
b111100000000100001001000110100 @
b111100000000100001001000110100 G
b1 -
b10000000000000000000100 &
b10000000000000000000100 6
b10000000000000000000100 P
b10000000000000000000100 d
b10000000000000000000100 h
b10000000000000000000100 m
b10000000000000000000100 s
1!
#26
0!
#28
b10010001101000000000001100100 O
b10010001101000000000001100100 a
x1
b10000000000000000001100 i
b11001 *
b10010001101000000000001100100 )
b10010001101000000000001100100 >
b10010001101000000000001100100 S
b10010001101000000000001100100 V
b10010001101000000000001100100 Y
b1100100 K
b1100100 U
b1100100 {
b110010000 n
b10010001101000000000000000000 M
b10010001101000000000000000000 X
b10010001101000000000000000000 c
b10010001101000000000000000000 z
b10000000000000110011100 k
b10000000000000110011100 p
b1 ?
b1 C
b1 E
b1 T
04
1=
b1101 A
b100100 B
b10000100000000001100100 f
b1100100 N
b1100100 l
b1100100 y
b1100100 x
b10 ^
b10010001101000000000000000000 $
b10010001101000000000000000000 ,
b10010001101000000000000000000 2
b10010001101000000000000000000 J
b10010001101000000000000000000 L
b10010001101000000000000000000 b
b10000000000000000001100 j
b10000000000000000001100 r
b10000000000000000001100 v
b110100010000100000000001100100 '
b110100010000100000000001100100 .
b110100010000100000000001100100 /
b110100010000100000000001100100 @
b110100010000100000000001100100 G
b10 -
b10000000000000000001000 &
b10000000000000000001000 6
b10000000000000000001000 P
b10000000000000000001000 d
b10000000000000000001000 h
b10000000000000000001000 m
b10000000000000000001000 s
1!
#30
0!
#32
b0 O
b0 a
b0 *
b0 )
b0 >
b0 S
b0 V
b0 Y
11
b10000000000000000010000 i
b0 n
b0 K
b0 U
b0 {
b10000000000000000010000 k
b10000000000000000010000 p
b10 ?
b10 C
b10 E
b10 T
14
0=
b11 <
b11 D
b11 F
b11 `
b1111 A
b0 B
b110000000000000000 f
b0 N
b0 l
b0 y
b0 x
b0 ^
b11 _
b10000000000000000010000 j
b10000000000000000010000 r
b10000000000000000010000 v
b111100000000110000000000000000 '
b111100000000110000000000000000 .
b111100000000110000000000000000 /
b111100000000110000000000000000 @
b111100000000110000000000000000 G
b11 -
b0 M
b0 X
b0 c
b0 z
b0 $
b0 ,
b0 2
b0 J
b0 L
b0 b
b10000000000000000001100 &
b10000000000000000001100 6
b10000000000000000001100 P
b10000000000000000001100 d
b10000000000000000001100 h
b10000000000000000001100 m
b10000000000000000001100 s
1!
#34
0!
#36
b11101110 O
b11101110 a
b10000000000000000010100 i
b111011 *
01
b11101110 )
b11101110 >
b11101110 S
b11101110 V
b11101110 Y
b11101110 K
b11101110 U
b11101110 {
b1110111000 n
b10000000000001111001100 k
b10000000000001111001100 p
b1 ?
b1 C
b1 E
b1 T
04
1=
b1101 A
b101110 B
b11000110000000011101110 f
b11101110 N
b11101110 l
b11101110 y
b11101110 x
b11 ^
b10000000000000000010100 j
b10000000000000000010100 r
b10000000000000000010100 v
b110100011000110000000011101110 '
b110100011000110000000011101110 .
b110100011000110000000011101110 /
b110100011000110000000011101110 @
b110100011000110000000011101110 G
b100 -
b10000000000000000010000 &
b10000000000000000010000 6
b10000000000000000010000 P
b10000000000000000010000 d
b10000000000000000010000 h
b10000000000000000010000 m
b10000000000000000010000 s
1!
#38
0!
#40
b100010000000000000100111001010001110000 R
b100010000000000000100111001010001110000 W
b100010000000000000100111001010001110000 [
b100010000000000000100111001010001110000 e
b10000000000000000011000 i
b100010000000000000100111001010001110000 Q
b100010000000000000100111001010001110000 Z
b100010000000000000100111001010001110000 \
b1101100 n
x1
b10000000000000010000100 k
b10000000000000010000100 p
b111 ?
b111 C
b111 E
b111 T
0=
b0 <
b0 D
b0 F
b0 `
b0 A
b11011 B
b10000110000000000011011 f
b11011 N
b11011 l
b11011 y
b11011 x
b10 ^
b10000000000000000011000 j
b10000000000000000011000 r
b10000000000000000011000 v
b10000110000000000011011 '
b10000110000000000011011 .
b10000110000000000011011 /
b10000110000000000011011 @
b10000110000000000011011 G
b101 -
b10010001101000000000001100100 M
b10010001101000000000001100100 X
b10010001101000000000001100100 c
b10010001101000000000001100100 z
b11101110 $
b11101110 ,
b11101110 2
b11101110 J
b11101110 L
b11101110 b
b10000000000000000010100 &
b10000000000000000010100 6
b10000000000000000010100 P
b10000000000000000010100 d
b10000000000000000010100 h
b10000000000000000010100 m
b10000000000000000010100 s
1!
#42
0!
#44
b1000100 O
b1000100 a
x1
b0 K
b0 U
b0 {
b10000000000000000011100 i
b10001 *
b1000100 )
b1000100 >
b1000100 S
b1000100 V
b1000100 Y
b100000001000000 n
b0 M
b0 X
b0 c
b0 z
b0 $
b0 ,
b0 2
b0 J
b0 L
b0 b
b10000000100000001011100 k
b10000000100000001011100 p
b100 ?
b100 C
b100 E
b100 T
b10 <
b10 D
b10 F
b10 `
b10000 B
b1000000010000 f
b1000000010000 N
b1000000010000 l
b1000000010000 y
b1000000010000 x
b0 ^
b0 _
b10000000000000000011100 j
b10000000000000000011100 r
b10000000000000000011100 v
b1000000010000 '
b1000000010000 .
b1000000010000 /
b1000000010000 @
b1000000010000 G
b110 -
b10000000000000000011000 &
b10000000000000000011000 6
b10000000000000000011000 P
b10000000000000000011000 d
b10000000000000000011000 h
b10000000000000000011000 m
b10000000000000000011000 s
1!
#46
0!
#48
b100111001010001110000 O
b100111001010001110000 a
b10000000000000000100000 i
b11100 *
b100111001010001110000 )
b100111001010001110000 >
b100111001010001110000 S
b100111001010001110000 V
b100111001010001110000 Y
b1000000001001000 n
b10000001000000001101000 k
b10000001000000001101000 p
b101 ?
b101 C
b101 E
b101 T
b100 <
b100 D
b100 F
b100 `
b10010 B
b10000000010010 f
b10000000010010 N
b10000000010010 l
b10000000010010 y
b10000000010010 x
b10000000000000000100000 j
b10000000000000000100000 r
b10000000000000000100000 v
b10000000010010 '
b10000000010010 .
b10000000010010 /
b10000000010010 @
b10000000010010 G
b111 -
b10000000000000000011100 &
b10000000000000000011100 6
b10000000000000000011100 P
b10000000000000000011100 d
b10000000000000000011100 h
b10000000000000000011100 m
b10000000000000000011100 s
1!
#50
0!
#52
b0 O
b0 a
b0 *
b10000000000000000110100 i
x1
b0 )
b0 >
b0 S
b0 V
b0 Y
b1101 K
b1101 U
b1101 {
b110100 n
b10000000000000001011000 k
b10000000000000001011000 p
bx ?
bx C
bx E
bx T
18
1=
bx <
bx D
bx F
bx `
05
b10 A
b1101 B
b100000000000000001101 f
b1101 N
b1101 l
b1101 y
b1101 x
b10000 _
b10000000000000000100100 j
b10000000000000000100100 r
b10000000000000000100100 v
b1000000100000000000000001101 '
b1000000100000000000000001101 .
b1000000100000000000000001101 /
b1000000100000000000000001101 @
b1000000100000000000000001101 G
b1000 -
b10000000000000000100000 &
b10000000000000000100000 6
b10000000000000000100000 P
b10000000000000000100000 d
b10000000000000000100000 h
b10000000000000000100000 m
b10000000000000000100000 s
1!
#54
0!
#56
xq
bx O
bx a
bx i
bx00 n
bx K
bx U
bx {
bx M
bx X
bx c
bx z
bx $
bx ,
bx 2
bx J
bx L
bx b
bx k
bx p
x8
x7
x(
x;
x4
x3
x=
x9
x:
x5
bx A
bx B
bx f
bx N
bx l
bx y
bx x
bx ^
bx _
b10000000000000000111000 j
b10000000000000000111000 r
b10000000000000000111000 v
bx '
bx .
bx /
bx @
bx G
b1101 -
b10000000000000000110100 &
b10000000000000000110100 6
b10000000000000000110100 P
b10000000000000000110100 d
b10000000000000000110100 h
b10000000000000000110100 m
b10000000000000000110100 s
1!
#58
0!
#60
bx j
bx r
bx v
xw
bx -
bx &
bx 6
bx P
bx d
bx h
bx m
bx s
1!
